ETT95;Espace Bouhcina;Visite 20;19/01/2016
ETT95;Espace Bouhcina;Visite 21;20/01/2016
ETT95;Espace Bouhcina;Visite 22;23/02/2016
ETT95;Espace Bouhcina;Visite 23;12/01/2016
ETT95;Espace Bouhcina;Visite 24;03/03/2016
ETT93;Espace Khezama;Visite 22;24/02/2016
ETT93;Espace Khezama;Visite 23;01/03/2016
ETT93;Espace Khezama;Visite 24;28/03/2016
ETT92;Espace Sousse centre ville;Visite 21;10/02/2016
ETT92;Espace Sousse centre ville;Visite 22;22/02/2016
ETT92;Espace Sousse centre ville;Visite 23;03/03/2016
ETT92;Espace Sousse centre ville;Visite 24;17/03/2016
ETT98;Espace Entreprise Sousse;Visite 21;13/06/2016
ETT98;Espace Entreprise Sousse;Visite 22;30/06/2016
ETT98;Espace Entreprise Sousse;Visite 24;10/08/2016
ETT99;Espace Enfidha;Visite 16;08/03/2016
ETT99;Espace Enfidha;Visite 17;23/03/2016
ETT88;Espace Moknine;Visite 22;07/03/2016
ETT88;Espace Moknine;Visite 23;10/03/2016
ETT82;Espace Grombalia;Visite 25;03/02/2016
ETT82;Espace Grombalia;Visite 26;23/02/2016
ETT82;Espace Grombalia;Visite 27;10/03/2016
ETT82;Espace Grombalia;Visite 28;29/03/2016
ETT82;Espace Grombalia;Visite 29;18/04/2016
ETT83;Espace Hammamet;Visite 16;09/02/2016
ETT84;Espace Korba;Visite 15;16/02/2016
ETT84;Espace Korba;Visite 17;25/02/2016
ETT86;Espace Kelibia;Visite 16;17/02/2016
ETT86;Espace Kelibia;Visite 17;08/03/2016
ETT81;Espace Nabeul;Visite 25;15/02/2016
ETT81;Espace Nabeul;Visite 26;29/02/2016
ETT81;Espace Nabeul;Visite 27;25/03/2016
ETT102;EspaceMenzel Bouzelfa;Visite 15;03/02/2016
ETT103;Espace Barraket Essahel;Visite 14;24/02/2016
ETT103;Espace Barraket Essahel;Visite 15;17/02/2016
ETT89;Espace Jammel;Visite 19;02/02/2016
ETT89;Espace Jammel;Visite 20;11/02/2016
ETT89;Espace Jammel;Visite 21;23/02/2016
ETT89;Espace Jammel;Visite 22;02/03/2016
ETT91;Espace Monastir Medina;Visite 20;25/02/2016
ETT91;Espace Monastir Medina;Visite 21;08/03/2016
ETT94;Espace Msaken;Visite 19;09/03/2016
ETT97;Espace PDV Erriadh;Visite 18;13/01/2016
ETT97;Espace PDV Erriadh;Visite 19;25/01/2016
ETT97;Espace PDV Erriadh;Visite 20;26/01/2016
ETT96;Espace Kantaoui;Visite 16;11/01/2016
ETT96;Espace Kantaoui;Visite 17;18/01/2016
ETT96;Espace Kantaoui;Visite 18;29/02/2016
ETT96;Espace Kantaoui;Visite 19;14/03/2016
ETT113;Espace El Jem;Visite 27;04/03/2016
ETT10;Espace Belvedere;Visite 25;09/03/2016
ETT12;Espace Entreprise Montplaisir;Visite 23;24/02/2016
ETT17;Espace Mourouj;Visite 21;28/01/2016
ETT17;Espace Mourouj;Visite 22;09/02/2016
ETT17;Espace Mourouj;Visite 23;18/02/2016
ETT17;Espace Mourouj;Visite 24;01/03/2016
ETT67;Espace Tebersouk;Visite 1;03/06/2015
ETT61;Espace Bizerte;Visite 7;11/03/2016
ETT61;Espace Bizerte;Visite 10;30/03/2016
ETT61;Espace Bizerte;Visite 13;05/04/2016
ETT61;Espace Bizerte;Visite 14;18/04/2016
ETT61;Espace Bizerte;Visite 15;28/04/2016
ETT61;Espace Bizerte;Visite 16;11/05/2016
ETT72;Espace Kef;Visite 19;18/01/2016
ETT72;Espace Kef;Visite 20;26/01/2016
ETT72;Espace Kef;Visite 21;08/02/2016
ETT63;Espace Bizerte Medina;Visite 7;07/04/2016
ETT63;Espace Bizerte Medina;Visite 13;18/03/2016
ETT63;Espace Bizerte Medina;Visite 14;17/03/2016
ETT63;Espace Bizerte Medina;Visite 15;24/03/2016
ETT63;Espace Bizerte Medina;Visite 16;31/03/2016
ETT62;Espace Menzel Bourguiba;Visite 12;18/03/2016
ETT62;Espace Menzel Bourguiba;Visite 13;17/03/2016
ETT62;Espace Menzel Bourguiba;Visite 14;24/03/2016
ETT62;Espace Menzel Bourguiba;Visite 15;31/03/2016
ETT62;Espace Menzel Bourguiba;Visite 16;24/03/2016
ETT73;Espace Tajerouine;Visite 15;18/01/2016
ETT73;Espace Tajerouine;Visite 16;25/01/2016
ETT73;Espace Tajerouine;Visite 17;04/02/2016
ETT73;Espace Tajerouine;Visite 18;04/02/2016
ETT43;Espace Tataouine;Visite 9;21/03/2016
ETT43;Espace Tataouine;Visite 10;21/03/2016
ETT43;Espace Tataouine;Visite 11;28/03/2016
ETT43;Espace Tataouine;Visite 12;12/04/2016
ETT43;Espace Tataouine;Visite 13;21/04/2016
ETT44;Espace Ghomrassen;Visite 10;22/03/2016
ETT44;Espace Ghomrassen;Visite 11;22/03/2016
ETT44;Espace Ghomrassen;Visite 13;13/04/2016
ETT44;Espace Ghomrassen;Visite 14;25/04/2016
ETT45;Espace Bir Lahmar;Visite 9;23/03/2016
ETT45;Espace Bir Lahmar;Visite 10;23/03/2016
ETT45;Espace Bir Lahmar;Visite 11;06/04/2016
ETT45;Espace Bir Lahmar;Visite 12;14/04/2016
ETT45;Espace Bir Lahmar;Visite 13;05/05/2016
ETT46;Espace Remada;Visite 9;24/03/2016
ETT46;Espace Remada;Visite 10;24/03/2016
ETT46;Espace Remada;Visite 11;07/04/2016
ETT46;Espace Remada;Visite 12;18/04/2016
ETT47;Espace Smar;Visite 8;25/03/2016
ETT47;Espace Smar;Visite 9;25/03/2016
ETT47;Espace Smar;Visite 10;11/04/2016
ETT47;Espace Smar;Visite 11;19/04/2016
ETT47;Espace Smar;Visite 12;10/05/2016
ETT105;Espace Aéroport Monastir;Visite 7;15/01/2016
ETT104;Espace Dar Chaabane;Visite 5;21/01/2016
ETT104;Espace Dar Chaabane;Visite 6;02/03/2016
ETT91;Espace Monastir Medina;Visite 24;19/04/2016
ETT92;Espace Sousse centre ville;Visite 20;01/02/2016
ETT98;Espace Entreprise Sousse;Visite 23;21/07/2016
ETT98;Espace Entreprise Sousse;Visite 23;08/06/2016
ETT3;Espace Kram;Visite 27;25/04/2016
ETT3;Espace Kram;Visite 28;02/05/2016
ETT3;Espace Kram;Visite 29;09/05/2016
ETT3;Espace Kram;Visite 32;30/05/2016
ETT4;Espace La Goulette;Visite 23;29/03/2016
ETT4;Espace La Goulette;Visite 24;05/04/2016
ETT4;Espace La Goulette;Visite 26;19/04/2016
ETT4;Espace La Goulette;Visite 27;26/04/2016
ETT4;Espace La Goulette;Visite 30;17/05/2016
ETT8;Espace Ezzouhour;Visite 31;26/05/2016
ETT8;Espace Ezzouhour;Visite 32;02/06/2016
ETT10;Espace Belvedere;Visite 26;22/03/2016
ETT10;Espace Belvedere;Visite 27;30/03/2016
ETT10;Espace Belvedere;Visite 28;12/04/2016
ETT10;Espace Belvedere;Visite 29;25/04/2016
ETT10;Espace Belvedere;Visite 30;05/05/2016
ETT10;Espace Belvedere;Visite 31;18/05/2016
ETT10;Espace Belvedere;Visite 32;30/05/2016
ETT10;Espace Belvedere;Visite 33;08/06/2016
ETT10;Espace Belvedere;Visite 34;20/06/2016
ETT10;Espace Belvedere;Visite 35;29/06/2016
ETT10;Espace Belvedere;Visite 36;11/07/2016
ETT10;Espace Belvedere;Visite 37;20/07/2016
ETT2;Espace kheireddine Pacha;Visite 25;31/03/2016
ETT2;Espace kheireddine Pacha;Visite 26;13/04/2016
ETT2;Espace kheireddine Pacha;Visite 27;26/04/2016
ETT2;Espace kheireddine Pacha;Visite 28;09/05/2016
ETT2;Espace kheireddine Pacha;Visite 29;19/05/2016
ETT2;Espace kheireddine Pacha;Visite 30;31/05/2016
ETT2;Espace kheireddine Pacha;Visite 31;09/06/2016
ETT2;Espace kheireddine Pacha;Visite 32;21/06/2016
ETT2;Espace kheireddine Pacha;Visite 33;30/06/2016
ETT2;Espace kheireddine Pacha;Visite 34;12/07/2016
ETT2;Espace kheireddine Pacha;Visite 35;21/07/2016
ETT12;Espace Entreprise Montplaisir;Visite 24;02/03/2016
ETT12;Espace Entreprise Montplaisir;Visite 25;17/03/2016
ETT12;Espace Entreprise Montplaisir;Visite 27;14/04/2016
ETT12;Espace Entreprise Montplaisir;Visite 28;27/04/2016
ETT12;Espace Entreprise Montplaisir;Visite 29;10/05/2016
ETT12;Espace Entreprise Montplaisir;Visite 30;23/05/2016
ETT12;Espace Entreprise Montplaisir;Visite 31;01/06/2016
ETT12;Espace Entreprise Montplaisir;Visite 32;13/06/2016
ETT12;Espace Entreprise Montplaisir;Visite 33;22/06/2016
ETT12;Espace Entreprise Montplaisir;Visite 34;04/07/2016
ETT12;Espace Entreprise Montplaisir;Visite 35;13/07/2016
ETT12;Espace Entreprise Montplaisir;Visite 36;26/07/2016
ETT15;Espace Ezzahra;Visite 24;09/03/2016
ETT15;Espace Ezzahra;Visite 25;23/03/2016
ETT15;Espace Ezzahra;Visite 26;08/04/2016
ETT15;Espace Ezzahra;Visite 27;25/04/2016
ETT15;Espace Ezzahra;Visite 28;05/05/2016
ETT15;Espace Ezzahra;Visite 29;23/05/2016
ETT15;Espace Ezzahra;Visite 30;07/06/2016
ETT15;Espace Ezzahra;Visite 31;27/06/2016
ETT15;Espace Ezzahra;Visite 32;11/07/2016
ETT15;Espace Ezzahra;Visite 33;26/07/2016
ETT15;Espace Ezzahra;Visite 34;12/08/2016
ETT15;Espace Ezzahra;Visite 35;29/08/2016
ETT15;Espace Ezzahra;Visite 36;05/08/2016
ETT16;Espace Rades;Visite 24;09/03/2016
ETT16;Espace Rades;Visite 25;23/03/2016
ETT16;Espace Rades;Visite 26;08/04/2016
ETT16;Espace Rades;Visite 27;25/04/2016
ETT16;Espace Rades;Visite 28;05/05/2016
ETT16;Espace Rades;Visite 29;23/05/2016
ETT16;Espace Rades;Visite 30;07/06/2016
ETT16;Espace Rades;Visite 31;27/06/2016
ETT16;Espace Rades;Visite 32;11/07/2016
ETT16;Espace Rades;Visite 33;26/07/2016
ETT16;Espace Rades;Visite 34;12/08/2016
ETT16;Espace Rades;Visite 35;29/08/2016
ETT16;Espace Rades;Visite 36;09/08/2016
ETT17;Espace Mourouj;Visite 27;17/03/2016
ETT17;Espace Mourouj;Visite 31;13/04/2016
ETT17;Espace Mourouj;Visite 35;11/05/2016
ETT17;Espace Mourouj;Visite 37;25/05/2016
ETT17;Espace Mourouj;Visite 28;23/03/2016
ETT17;Espace Mourouj;Visite 29;30/03/2016
ETT17;Espace Mourouj;Visite 30;06/04/2016
ETT17;Espace Mourouj;Visite 32;20/04/2016
ETT17;Espace Mourouj;Visite 33;27/04/2016
ETT17;Espace Mourouj;Visite 34;04/05/2016
ETT17;Espace Mourouj;Visite 36;18/05/2016
ETT56;Espace Tunis City;Visite 19;23/03/2016
ETT56;Espace Tunis City;Visite 20;11/04/2016
ETT56;Espace Tunis City;Visite 21;27/04/2016
ETT56;Espace Tunis City;Visite 22;16/05/2016
ETT56;Espace Tunis City;Visite 23;01/06/2016
ETT56;Espace Tunis City;Visite 24;20/06/2016
ETT56;Espace Tunis City;Visite 25;11/07/2016
ETT56;Espace Tunis City;Visite 26;28/07/2016
ETT56;Espace Tunis City;Visite 27;16/08/2016
ETT52;Espace Borj Louzir;Visite 19;24/03/2016
ETT52;Espace Borj Louzir;Visite 20;12/04/2016
ETT52;Espace Borj Louzir;Visite 21;28/04/2016
ETT52;Espace Borj Louzir;Visite 22;17/05/2016
ETT52;Espace Borj Louzir;Visite 23;02/06/2016
ETT52;Espace Borj Louzir;Visite 24;21/06/2016
ETT52;Espace Borj Louzir;Visite 25;12/07/2016
ETT52;Espace Borj Louzir;Visite 26;01/08/2016
ETT52;Espace Borj Louzir;Visite 27;17/08/2016
ETT57;Espace Ennasr;Visite 19;28/03/2016
ETT57;Espace Ennasr;Visite 20;13/04/2016
ETT57;Espace Ennasr;Visite 21;02/05/2016
ETT57;Espace Ennasr;Visite 22;18/05/2016
ETT57;Espace Ennasr;Visite 23;06/06/2016
ETT57;Espace Ennasr;Visite 24;22/06/2016
ETT57;Espace Ennasr;Visite 25;13/07/2016
ETT57;Espace Ennasr;Visite 26;02/08/2016
ETT57;Espace Ennasr;Visite 27;18/08/2016
ETT55;Espace Ariana;Visite 19;29/03/2016
ETT55;Espace Ariana;Visite 20;14/04/2016
ETT55;Espace Ariana;Visite 21;03/05/2016
ETT55;Espace Ariana;Visite 22;19/05/2016
ETT55;Espace Ariana;Visite 23;07/06/2016
ETT55;Espace Ariana;Visite 24;23/06/2016
ETT55;Espace Ariana;Visite 25;14/07/2016
ETT55;Espace Ariana;Visite 26;03/08/2016
ETT55;Espace Ariana;Visite 27;22/08/2016
ETT59;Espace El Ghazala;Visite 18;14/03/2016
ETT59;Espace El Ghazala;Visite 19;30/03/2016
ETT59;Espace El Ghazala;Visite 20;18/04/2016
ETT59;Espace El Ghazala;Visite 21;04/05/2016
ETT59;Espace El Ghazala;Visite 22;23/05/2016
ETT59;Espace El Ghazala;Visite 23;08/06/2016
ETT59;Espace El Ghazala;Visite 24;27/06/2016
ETT59;Espace El Ghazala;Visite 25;18/07/2016
ETT59;Espace El Ghazala;Visite 26;04/08/2016
ETT75;EspaceAouina;Visite 18;15/03/2016
ETT75;EspaceAouina;Visite 19;31/03/2016
ETT75;EspaceAouina;Visite 20;19/04/2016
ETT75;EspaceAouina;Visite 21;05/05/2016
ETT75;EspaceAouina;Visite 22;24/05/2016
ETT75;EspaceAouina;Visite 23;09/06/2016
ETT75;EspaceAouina;Visite 24;28/06/2016
ETT75;EspaceAouina;Visite 25;19/07/2016
ETT75;EspaceAouina;Visite 26;08/08/2016
ETT54;Espace Menzah 4;Visite 18;16/03/2016
ETT54;Espace Menzah 4;Visite 19;04/04/2016
ETT54;Espace Menzah 4;Visite 20;20/04/2016
ETT54;Espace Menzah 4;Visite 21;09/05/2016
ETT54;Espace Menzah 4;Visite 22;25/05/2016
ETT54;Espace Menzah 4;Visite 23;13/06/2016
ETT54;Espace Menzah 4;Visite 24;29/06/2016
ETT54;Espace Menzah 4;Visite 25;20/07/2016
ETT54;Espace Menzah 4;Visite 26;09/08/2016
ETT53;Espace Menzah 6;Visite 17;17/03/2016
ETT53;Espace Menzah 6;Visite 18;05/04/2016
ETT53;Espace Menzah 6;Visite 19;21/04/2016
ETT53;Espace Menzah 6;Visite 20;10/05/2016
ETT53;Espace Menzah 6;Visite 21;26/05/2016
ETT53;Espace Menzah 6;Visite 22;14/06/2016
ETT53;Espace Menzah 6;Visite 23;30/06/2016
ETT53;Espace Menzah 6;Visite 24;21/07/2016
ETT53;Espace Menzah 6;Visite 25;10/08/2016
ETT58;Espace El Manar;Visite 17;21/03/2016
ETT58;Espace El Manar;Visite 18;06/04/2016
ETT58;Espace El Manar;Visite 19;25/04/2016
ETT58;Espace El Manar;Visite 20;11/05/2016
ETT58;Espace El Manar;Visite 21;30/05/2016
ETT58;Espace El Manar;Visite 22;15/06/2016
ETT58;Espace El Manar;Visite 23;04/07/2016
ETT58;Espace El Manar;Visite 24;26/07/2016
ETT58;Espace El Manar;Visite 25;11/08/2016
ETT57;Espace Ennasr;Visite 17;22/02/2016
ETT55;Espace Ariana;Visite 17;23/02/2016
ETT59;Espace El Ghazala;Visite 17;24/02/2016
ETT247;ETT Entreprise Ariana;Visite 2;22/03/2016
ETT247;ETT Entreprise Ariana;Visite 3;07/04/2016
ETT247;ETT Entreprise Ariana;Visite 4;26/04/2016
ETT247;ETT Entreprise Ariana;Visite 5;12/05/2016
ETT247;ETT Entreprise Ariana;Visite 6;31/05/2016
ETT247;ETT Entreprise Ariana;Visite 7;16/06/2016
ETT247;ETT Entreprise Ariana;Visite 8;07/07/2016
ETT247;ETT Entreprise Ariana;Visite 9;27/07/2016
ETT247;ETT Entreprise Ariana;Visite 10;15/08/2016
ETT22;Espace Sekit Ezzit;Visite 21;30/03/2016
ETT22;Espace Sekit Ezzit;Visite 22;13/04/2016
ETT22;Espace Sekit Ezzit;Visite 23;27/04/2016
ETT22;Espace Sekit Ezzit;Visite 24;11/05/2016
ETT22;Espace Sekit Ezzit;Visite 25;25/05/2016
ETT22;Espace Sekit Ezzit;Visite 26;14/06/2016
ETT22;Espace Sekit Ezzit;Visite 27;28/06/2016
ETT22;Espace Sekit Ezzit;Visite 28;18/07/2016
ETT22;Espace Sekit Ezzit;Visite 29;01/08/2016
ETT22;Espace Sekit Ezzit;Visite 30;15/08/2016
ETT22;Espace Sekit Ezzit;Visite 31;29/08/2016
ETT23;Espace Sfax Madina;Visite 19;21/03/2016
ETT23;Espace Sfax Madina;Visite 20;04/04/2016
ETT23;Espace Sfax Madina;Visite 21;18/04/2016
ETT23;Espace Sfax Madina;Visite 22;02/05/2016
ETT23;Espace Sfax Madina;Visite 23;16/05/2016
ETT23;Espace Sfax Madina;Visite 24;30/05/2016
ETT23;Espace Sfax Madina;Visite 25;16/06/2016
ETT23;Espace Sfax Madina;Visite 26;30/06/2016
ETT23;Espace Sfax Madina;Visite 27;20/07/2016
ETT23;Espace Sfax Madina;Visite 28;03/08/2016
ETT23;Espace Sfax Madina;Visite 29;17/08/2016
ETT23;Espace Sfax Madina;Visite 30;30/08/2016
ETT24;Espace Sfax Sud;Visite 21;16/03/2016
ETT24;Espace Sfax Sud;Visite 22;06/04/2016
ETT24;Espace Sfax Sud;Visite 23;20/04/2016
ETT24;Espace Sfax Sud;Visite 24;04/05/2016
ETT24;Espace Sfax Sud;Visite 25;18/05/2016
ETT24;Espace Sfax Sud;Visite 26;01/06/2016
ETT24;Espace Sfax Sud;Visite 27;22/06/2016
ETT24;Espace Sfax Sud;Visite 28;06/07/2016
ETT24;Espace Sfax Sud;Visite 29;20/07/2016
ETT24;Espace Sfax Sud;Visite 30;04/08/2016
ETT24;Espace Sfax Sud;Visite 31;17/08/2016
ETT24;Espace Sfax Sud;Visite 32;31/08/2016
ETT24;Espace Sfax Sud;Visite 33;14/09/2016
ETT25;Espace Sfax Jadida;Visite 20;15/03/2016
ETT25;Espace Sfax Jadida;Visite 21;29/03/2016
ETT25;Espace Sfax Jadida;Visite 22;12/04/2016
ETT25;Espace Sfax Jadida;Visite 23;26/04/2016
ETT25;Espace Sfax Jadida;Visite 24;10/05/2016
ETT25;Espace Sfax Jadida;Visite 25;24/05/2016
ETT25;Espace Sfax Jadida;Visite 26;09/06/2016
ETT25;Espace Sfax Jadida;Visite 27;23/06/2016
ETT25;Espace Sfax Jadida;Visite 28;13/07/2016
ETT25;Espace Sfax Jadida;Visite 29;27/07/2016
ETT25;Espace Sfax Jadida;Visite 30;10/08/2016
ETT25;Espace Sfax Jadida;Visite 31;24/08/2016
ETT26;Espace El Bosten;Visite 18;15/03/2016
ETT26;Espace El Bosten;Visite 19;05/04/2016
ETT26;Espace El Bosten;Visite 20;19/04/2016
ETT26;Espace El Bosten;Visite 21;03/05/2016
ETT26;Espace El Bosten;Visite 22;17/05/2016
ETT26;Espace El Bosten;Visite 23;31/05/2016
ETT26;Espace El Bosten;Visite 24;21/06/2016
ETT26;Espace El Bosten;Visite 25;05/07/2016
ETT26;Espace El Bosten;Visite 26;19/07/2016
ETT26;Espace El Bosten;Visite 27;03/08/2016
ETT26;Espace El Bosten;Visite 28;16/08/2016
ETT26;Espace El Bosten;Visite 29;30/08/2016
ETT26;Espace El Bosten;Visite 30;13/09/2016
ETT27;Espace Mahras;Visite 16;14/03/2016
ETT27;Espace Mahras;Visite 17;28/03/2016
ETT27;Espace Mahras;Visite 18;11/04/2016
ETT27;Espace Mahras;Visite 19;25/04/2016
ETT27;Espace Mahras;Visite 20;09/05/2016
ETT27;Espace Mahras;Visite 21;23/05/2016
ETT27;Espace Mahras;Visite 22;07/06/2016
ETT27;Espace Mahras;Visite 23;21/06/2016
ETT27;Espace Mahras;Visite 24;07/07/2016
ETT27;Espace Mahras;Visite 25;11/07/2016
ETT27;Espace Mahras;Visite 26;08/08/2016
ETT27;Espace Mahras;Visite 27;22/08/2016
ETT28;Espace Jebeniana;Visite 17;14/03/2016
ETT28;Espace Jebeniana;Visite 19;18/04/2016
ETT28;Espace Jebeniana;Visite 20;02/05/2016
ETT28;Espace Jebeniana;Visite 21;16/05/2016
ETT28;Espace Jebeniana;Visite 22;30/05/2016
ETT28;Espace Jebeniana;Visite 23;20/06/2016
ETT28;Espace Jebeniana;Visite 24;04/07/2016
ETT28;Espace Jebeniana;Visite 25;18/07/2016
ETT28;Espace Jebeniana;Visite 26;02/08/2016
ETT28;Espace Jebeniana;Visite 27;15/08/2016
ETT28;Espace Jebeniana;Visite 28;29/08/2016
ETT28;Espace Jebeniana;Visite 29;12/09/2016
ETT29;Espace  Kerkenah;Visite 10;16/03/2016
ETT29;Espace  Kerkenah;Visite 11;05/04/2016
ETT29;Espace  Kerkenah;Visite 12;03/05/2016
ETT29;Espace  Kerkenah;Visite 13;31/05/2016
ETT29;Espace  Kerkenah;Visite 14;21/07/2016
ETT29;Espace  Kerkenah;Visite 15;04/08/2016
ETT29;Espace  Kerkenah;Visite 16;18/08/2016
ETT30;Espace Horria;Visite 18;14/03/2016
ETT30;Espace Horria;Visite 19;04/04/2016
ETT30;Espace Horria;Visite 20;18/04/2016
ETT30;Espace Horria;Visite 21;02/05/2016
ETT30;Espace Horria;Visite 22;16/05/2016
ETT30;Espace Horria;Visite 23;30/05/2016
ETT30;Espace Horria;Visite 24;20/06/2016
ETT30;Espace Horria;Visite 25;04/07/2016
ETT30;Espace Horria;Visite 26;18/07/2016
ETT30;Espace Horria;Visite 27;02/08/2016
ETT30;Espace Horria;Visite 28;15/08/2016
ETT30;Espace Horria;Visite 29;29/08/2016
ETT30;Espace Horria;Visite 30;12/09/2016
ETT31;Espace Entreprise Sfax;Visite 18;15/03/2016
ETT31;Espace Entreprise Sfax;Visite 19;05/04/2016
ETT31;Espace Entreprise Sfax;Visite 20;19/04/2016
ETT31;Espace Entreprise Sfax;Visite 21;03/05/2016
ETT31;Espace Entreprise Sfax;Visite 22;17/05/2016
ETT31;Espace Entreprise Sfax;Visite 23;31/05/2016
ETT31;Espace Entreprise Sfax;Visite 24;21/06/2016
ETT31;Espace Entreprise Sfax;Visite 25;05/07/2016
ETT31;Espace Entreprise Sfax;Visite 26;19/07/2016
ETT31;Espace Entreprise Sfax;Visite 27;03/08/2016
ETT31;Espace Entreprise Sfax;Visite 28;16/08/2016
ETT31;Espace Entreprise Sfax;Visite 29;30/08/2016
ETT31;Espace Entreprise Sfax;Visite 30;13/09/2016
ETT33;Espace Gabes;Visite 21;22/03/2016
ETT33;Espace Gabes;Visite 22;24/03/2016
ETT33;Espace Gabes;Visite 23;07/04/2016
ETT33;Espace Gabes;Visite 24;19/04/2016
ETT33;Espace Gabes;Visite 25;21/04/2016
ETT33;Espace Gabes;Visite 26;05/05/2016
ETT33;Espace Gabes;Visite 27;17/05/2016
ETT33;Espace Gabes;Visite 28;19/05/2016
ETT33;Espace Gabes;Visite 29;02/06/2016
ETT33;Espace Gabes;Visite 30;08/06/2016
ETT33;Espace Gabes;Visite 31;15/06/2016
ETT33;Espace Gabes;Visite 32;22/06/2016
ETT33;Espace Gabes;Visite 33;29/06/2016
ETT33;Espace Gabes;Visite 34;05/07/2016
ETT33;Espace Gabes;Visite 35;19/07/2016
ETT33;Espace Gabes;Visite 36;02/08/2016
ETT33;Espace Gabes;Visite 37;16/08/2016
ETT33;Espace Gabes;Visite 38;31/08/2016
ETT34;Espace Gabes Sud;Visite 27;08/03/2016
ETT34;Espace Gabes Sud;Visite 28;21/03/2016
ETT34;Espace Gabes Sud;Visite 29;12/04/2016
ETT34;Espace Gabes Sud;Visite 30;26/04/2016
ETT34;Espace Gabes Sud;Visite 31;10/05/2016
ETT34;Espace Gabes Sud;Visite 32;24/05/2016
ETT34;Espace Gabes Sud;Visite 33;08/06/2016
ETT34;Espace Gabes Sud;Visite 34;28/06/2016
ETT34;Espace Gabes Sud;Visite 35;12/07/2016
ETT34;Espace Gabes Sud;Visite 36;27/07/2016
ETT34;Espace Gabes Sud;Visite 37;09/08/2016
ETT34;Espace Gabes Sud;Visite 38;23/08/2016
ETT34;Espace Gabes Sud;Visite 39;06/09/2016
ETT35;Espace El Hamma;Visite 21;23/03/2016
ETT35;Espace El Hamma;Visite 22;06/04/2016
ETT35;Espace El Hamma;Visite 23;20/04/2016
ETT35;Espace El Hamma;Visite 24;04/05/2016
ETT35;Espace El Hamma;Visite 25;18/05/2016
ETT35;Espace El Hamma;Visite 26;01/06/2016
ETT35;Espace El Hamma;Visite 27;13/06/2016
ETT35;Espace El Hamma;Visite 28;27/06/2016
ETT35;Espace El Hamma;Visite 29;14/07/2016
ETT35;Espace El Hamma;Visite 30;28/07/2016
ETT35;Espace El Hamma;Visite 31;11/08/2016
ETT35;Espace El Hamma;Visite 32;25/08/2016
ETT36;Espace Metouia;Visite 18;17/03/2016
ETT36;Espace Metouia;Visite 19;31/03/2016
ETT36;Espace Metouia;Visite 20;14/04/2016
ETT36;Espace Metouia;Visite 21;28/04/2016
ETT36;Espace Metouia;Visite 22;12/05/2016
ETT36;Espace Metouia;Visite 23;26/05/2016
ETT36;Espace Metouia;Visite 24;06/06/2016
ETT36;Espace Metouia;Visite 25;20/06/2016
ETT36;Espace Metouia;Visite 26;04/07/2016
ETT36;Espace Metouia;Visite 27;12/07/2016
ETT36;Espace Metouia;Visite 28;26/07/2016
ETT36;Espace Metouia;Visite 29;09/08/2016
ETT36;Espace Metouia;Visite 30;23/08/2016
ETT37;Espace Medenine;Visite 13;23/03/2016
ETT37;Espace Medenine;Visite 14;25/03/2016
ETT37;Espace Medenine;Visite 15;14/04/2016
ETT37;Espace Medenine;Visite 16;28/04/2016
ETT37;Espace Medenine;Visite 17;12/05/2016
ETT37;Espace Medenine;Visite 18;26/05/2016
ETT37;Espace Medenine;Visite 19;16/06/2016
ETT37;Espace Medenine;Visite 20;30/06/2016
ETT37;Espace Medenine;Visite 21;14/07/2016
ETT37;Espace Medenine;Visite 22;01/08/2016
ETT37;Espace Medenine;Visite 23;11/08/2016
ETT37;Espace Medenine;Visite 24;25/08/2016
ETT37;Espace Medenine;Visite 25;08/09/2016
ETT38;Espace Zarzis;Visite 14;22/03/2016
ETT38;Espace Zarzis;Visite 15;24/03/2016
ETT38;Espace Zarzis;Visite 16;13/04/2016
ETT38;Espace Zarzis;Visite 17;27/04/2016
ETT38;Espace Zarzis;Visite 18;11/05/2016
ETT38;Espace Zarzis;Visite 19;25/05/2016
ETT38;Espace Zarzis;Visite 20;09/06/2016
ETT38;Espace Zarzis;Visite 21;29/06/2016
ETT38;Espace Zarzis;Visite 22;13/07/2016
ETT38;Espace Zarzis;Visite 23;28/07/2016
ETT38;Espace Zarzis;Visite 24;10/08/2016
ETT38;Espace Zarzis;Visite 25;24/08/2016
ETT38;Espace Zarzis;Visite 26;07/09/2016
ETT39;Espace Ben Guerden;Visite 14;20/04/2016
ETT39;Espace Ben Guerden;Visite 15;04/05/2016
ETT39;Espace Ben Guerden;Visite 16;18/05/2016
ETT39;Espace Ben Guerden;Visite 17;30/05/2016
ETT39;Espace Ben Guerden;Visite 18;16/06/2016
ETT39;Espace Ben Guerden;Visite 19;04/07/2016
ETT39;Espace Ben Guerden;Visite 20;19/07/2016
ETT39;Espace Ben Guerden;Visite 21;03/08/2016
ETT39;Espace Ben Guerden;Visite 22;18/08/2016
ETT39;Espace Ben Guerden;Visite 23;05/09/2016
ETT40;Espace Jerba Hsouk;Visite 24;17/03/2016
ETT40;Espace Jerba Hsouk;Visite 25;20/06/2016
ETT40;Espace Jerba Hsouk;Visite 26;05/07/2016
ETT40;Espace Jerba Hsouk;Visite 27;20/07/2016
ETT40;Espace Jerba Hsouk;Visite 28;04/08/2016
ETT40;Espace Jerba Hsouk;Visite 29;22/08/2016
ETT40;Espace Jerba Hsouk;Visite 30;06/09/2016
ETT41;Espace Midoun;Visite 22;15/03/2016
ETT41;Espace Midoun;Visite 23;18/03/2016
ETT41;Espace Midoun;Visite 24;21/06/2016
ETT41;Espace Midoun;Visite 25;06/07/2016
ETT41;Espace Midoun;Visite 26;21/07/2016
ETT41;Espace Midoun;Visite 27;08/08/2016
ETT41;Espace Midoun;Visite 28;23/08/2016
ETT41;Espace Midoun;Visite 29;07/09/2016
ETT42;Espace Ajim Djerba;Visite 23;16/03/2016
ETT42;Espace Ajim Djerba;Visite 24;31/05/2016
ETT42;Espace Ajim Djerba;Visite 25;22/06/2016
ETT42;Espace Ajim Djerba;Visite 26;07/07/2016
ETT42;Espace Ajim Djerba;Visite 27;26/07/2016
ETT42;Espace Ajim Djerba;Visite 28;09/08/2016
ETT42;Espace Ajim Djerba;Visite 29;24/08/2016
ETT43;Espace Tataouine;Visite 14;26/04/2016
ETT43;Espace Tataouine;Visite 15;19/05/2016
ETT43;Espace Tataouine;Visite 16;01/06/2016
ETT43;Espace Tataouine;Visite 17;23/06/2016
ETT43;Espace Tataouine;Visite 18;11/07/2016
ETT43;Espace Tataouine;Visite 19;27/07/2016
ETT43;Espace Tataouine;Visite 20;10/08/2016
ETT43;Espace Tataouine;Visite 21;25/08/2016
ETT44;Espace Ghomrassen;Visite 15;27/04/2016
ETT44;Espace Ghomrassen;Visite 16;11/05/2016
ETT44;Espace Ghomrassen;Visite 17;23/05/2016
ETT44;Espace Ghomrassen;Visite 18;06/06/2016
ETT44;Espace Ghomrassen;Visite 19;27/06/2016
ETT44;Espace Ghomrassen;Visite 20;12/07/2016
ETT44;Espace Ghomrassen;Visite 21;28/07/2016
ETT44;Espace Ghomrassen;Visite 22;11/08/2016
ETT44;Espace Ghomrassen;Visite 23;29/08/2016
ETT45;Espace Bir Lahmar;Visite 14;28/04/2016
ETT45;Espace Bir Lahmar;Visite 15;12/05/2016
ETT45;Espace Bir Lahmar;Visite 16;24/05/2016
ETT45;Espace Bir Lahmar;Visite 17;07/06/2016
ETT45;Espace Bir Lahmar;Visite 18;28/06/2016
ETT45;Espace Bir Lahmar;Visite 19;13/07/2016
ETT45;Espace Bir Lahmar;Visite 20;01/08/2016
ETT45;Espace Bir Lahmar;Visite 21;15/08/2016
ETT45;Espace Bir Lahmar;Visite 22;30/08/2016
ETT46;Espace Remada;Visite 13;09/05/2016
ETT46;Espace Remada;Visite 14;02/05/2016
ETT46;Espace Remada;Visite 15;16/05/2016
ETT46;Espace Remada;Visite 16;25/05/2016
ETT46;Espace Remada;Visite 17;08/06/2016
ETT46;Espace Remada;Visite 18;29/06/2016
ETT46;Espace Remada;Visite 19;14/07/2016
ETT46;Espace Remada;Visite 20;16/08/2016
ETT46;Espace Remada;Visite 21;31/08/2016
ETT47;Espace Smar;Visite 13;03/05/2016
ETT47;Espace Smar;Visite 14;17/05/2016
ETT47;Espace Smar;Visite 15;26/05/2016
ETT47;Espace Smar;Visite 16;09/06/2016
ETT47;Espace Smar;Visite 17;30/06/2016
ETT47;Espace Smar;Visite 18;18/07/2016
ETT47;Espace Smar;Visite 19;02/08/2016
ETT47;Espace Smar;Visite 20;17/08/2016
ETT47;Espace Smar;Visite 21;01/09/2016
ETT48;Espace Kebili;Visite 30;07/03/2016
ETT48;Espace Kebili;Visite 31;09/03/2016
ETT48;Espace Kebili;Visite 32;11/04/2016
ETT48;Espace Kebili;Visite 33;25/04/2016
ETT48;Espace Kebili;Visite 34;09/05/2016
ETT48;Espace Kebili;Visite 35;23/05/2016
ETT48;Espace Kebili;Visite 36;07/06/2016
ETT48;Espace Kebili;Visite 37;27/06/2016
ETT48;Espace Kebili;Visite 38;11/07/2016
ETT48;Espace Kebili;Visite 39;26/07/2016
ETT48;Espace Kebili;Visite 40;22/08/2016
ETT49;Espace Douz;Visite 20;07/03/2016
ETT49;Espace Douz;Visite 21;10/03/2016
ETT49;Espace Douz;Visite 22;11/04/2016
ETT49;Espace Douz;Visite 23;25/04/2016
ETT49;Espace Douz;Visite 24;09/05/2016
ETT49;Espace Douz;Visite 25;23/05/2016
ETT49;Espace Douz;Visite 26;07/06/2016
ETT49;Espace Douz;Visite 27;27/06/2016
ETT49;Espace Douz;Visite 28;11/07/2016
ETT49;Espace Douz;Visite 29;26/07/2016
ETT49;Espace Douz;Visite 30;22/08/2016
ETT49;Espace Douz;Visite 31;05/09/2016
ETT50;Espace Elhabib;Visite 1;17/03/2016
ETT50;Espace Elhabib;Visite 2;07/04/2016
ETT50;Espace Elhabib;Visite 3;21/04/2016
ETT50;Espace Elhabib;Visite 4;05/05/2016
ETT50;Espace Elhabib;Visite 5;19/05/2016
ETT50;Espace Elhabib;Visite 6;06/06/2016
ETT50;Espace Elhabib;Visite 7;23/06/2016
ETT50;Espace Elhabib;Visite 8;07/07/2016
ETT50;Espace Elhabib;Visite 9;21/07/2016
ETT50;Espace Elhabib;Visite 10;08/08/2016
ETT50;Espace Elhabib;Visite 11;18/08/2016
ETT50;Espace Elhabib;Visite 12;01/09/2016
ETT51;Espace Siliana;Visite 18;07/03/2016
ETT9;Espace Marsa;Visite 25;16/03/2016
ETT9;Espace Marsa;Visite 26;30/03/2016
ETT9;Espace Marsa;Visite 27;14/04/2016
ETT9;Espace Marsa;Visite 28;29/04/2016
ETT9;Espace Marsa;Visite 29;13/05/2016
ETT9;Espace Marsa;Visite 30;27/05/2016
ETT9;Espace Marsa;Visite 31;17/06/2016
ETT9;Espace Marsa;Visite 32;01/07/2016
ETT9;Espace Marsa;Visite 33;16/07/2016
ETT9;Espace Marsa;Visite 34;03/08/2016
ETT9;Espace Marsa;Visite 35;19/08/2016
ETT9;Espace Marsa;Visite 36;07/09/2016
ETT5;Espace Lac;Visite 25;16/03/2016
ETT5;Espace Lac;Visite 26;30/03/2016
ETT5;Espace Lac;Visite 27;14/04/2016
ETT5;Espace Lac;Visite 28;29/04/2016
ETT5;Espace Lac;Visite 29;13/05/2016
ETT5;Espace Lac;Visite 30;27/05/2016
ETT5;Espace Lac;Visite 31;17/06/2016
ETT5;Espace Lac;Visite 32;01/07/2016
ETT5;Espace Lac;Visite 33;16/07/2016
ETT5;Espace Lac;Visite 34;03/08/2016
ETT5;Espace Lac;Visite 35;19/08/2016
ETT5;Espace Lac;Visite 36;07/09/2016
ETT20;Espace Ksar Essaid;Visite 23;27/04/2016
ETT20;Espace Ksar Essaid;Visite 24;11/05/2016
ETT20;Espace Ksar Essaid;Visite 25;25/05/2016
ETT20;Espace Ksar Essaid;Visite 26;09/06/2016
ETT20;Espace Ksar Essaid;Visite 27;29/06/2016
ETT20;Espace Ksar Essaid;Visite 28;13/07/2016
ETT20;Espace Ksar Essaid;Visite 29;28/07/2016
ETT20;Espace Ksar Essaid;Visite 30;16/08/2016
ETT20;Espace Ksar Essaid;Visite 31;31/08/2016
ETT20;Espace Ksar Essaid;Visite 32;13/07/2016
ETT20;Espace Ksar Essaid;Visite 33;28/07/2016
ETT20;Espace Ksar Essaid;Visite 34;16/08/2016
ETT20;Espace Ksar Essaid;Visite 35;31/08/2016
ETT20;Espace Ksar Essaid;Visite 36;31/08/2016
ETT21;Espace Mornaguia;Visite 23;28/03/2016
ETT21;Espace Mornaguia;Visite 24;12/04/2016
ETT21;Espace Mornaguia;Visite 25;27/04/2016
ETT21;Espace Mornaguia;Visite 26;11/05/2016
ETT21;Espace Mornaguia;Visite 27;25/05/2016
ETT21;Espace Mornaguia;Visite 28;09/06/2016
ETT21;Espace Mornaguia;Visite 29;29/06/2016
ETT21;Espace Mornaguia;Visite 30;13/07/2016
ETT21;Espace Mornaguia;Visite 31;28/07/2016
ETT21;Espace Mornaguia;Visite 32;16/08/2016
ETT21;Espace Mornaguia;Visite 33;31/08/2016
ETT21;Espace Mornaguia;Visite 34;31/08/2016
ETT21;Espace Mornaguia;Visite 35;31/08/2016
ETT21;Espace Mornaguia;Visite 36;31/08/2016
ETT18;Espace Zaghouan;Visite 21;17/03/2016
ETT18;Espace Zaghouan;Visite 22;31/03/2016
ETT18;Espace Zaghouan;Visite 23;19/04/2016
ETT18;Espace Zaghouan;Visite 24;03/05/2016
ETT18;Espace Zaghouan;Visite 25;17/05/2016
ETT18;Espace Zaghouan;Visite 26;31/05/2016
ETT18;Espace Zaghouan;Visite 27;21/06/2016
ETT18;Espace Zaghouan;Visite 28;05/07/2016
ETT18;Espace Zaghouan;Visite 29;19/07/2016
ETT18;Espace Zaghouan;Visite 30;05/08/2016
ETT18;Espace Zaghouan;Visite 31;23/08/2016
ETT18;Espace Zaghouan;Visite 32;09/09/2016
ETT65;Espace Beja;Visite 23;24/03/2016
ETT11;Espace Hached;Visite 21;22/03/2016
ETT11;Espace Hached;Visite 23;21/04/2016
ETT11;Espace Hached;Visite 25;19/05/2016
ETT11;Espace Hached;Visite 26;06/06/2016
ETT11;Espace Hached;Visite 27;23/06/2016
ETT11;Espace Hached;Visite 28;07/07/2016
ETT11;Espace Hached;Visite 29;21/07/2016
ETT11;Espace Hached;Visite 30;10/08/2016
ETT11;Espace Hached;Visite 31;25/08/2016
ETT93;Espace Khezama;Visite 25;18/04/2016
ETT93;Espace Khezama;Visite 26;27/04/2016
ETT93;Espace Khezama;Visite 27;09/05/2016
ETT93;Espace Khezama;Visite 28;18/05/2016
ETT93;Espace Khezama;Visite 29;30/05/2016
ETT93;Espace Khezama;Visite 30;08/06/2016
ETT93;Espace Khezama;Visite 31;20/06/2016
ETT93;Espace Khezama;Visite 32;29/06/2016
ETT93;Espace Khezama;Visite 33;11/07/2016
ETT93;Espace Khezama;Visite 34;20/07/2016
ETT93;Espace Khezama;Visite 35;01/08/2016
ETT93;Espace Khezama;Visite 36;09/08/2016
ETT93;Espace Khezama;Visite 37;18/08/2016
ETT92;Espace Sousse centre ville;Visite 25;04/04/2016
ETT92;Espace Sousse centre ville;Visite 26;13/04/2016
ETT92;Espace Sousse centre ville;Visite 27;25/04/2016
ETT92;Espace Sousse centre ville;Visite 28;04/05/2016
ETT92;Espace Sousse centre ville;Visite 29;16/05/2016
ETT92;Espace Sousse centre ville;Visite 30;25/05/2016
ETT92;Espace Sousse centre ville;Visite 31;06/06/2016
ETT92;Espace Sousse centre ville;Visite 32;15/06/2016
ETT92;Espace Sousse centre ville;Visite 33;27/06/2016
ETT92;Espace Sousse centre ville;Visite 34;06/07/2016
ETT92;Espace Sousse centre ville;Visite 35;18/07/2016
ETT92;Espace Sousse centre ville;Visite 36;27/07/2016
ETT92;Espace Sousse centre ville;Visite 37;16/08/2016
ETT88;Espace Moknine;Visite 24;17/03/2016
ETT88;Espace Moknine;Visite 25;21/03/2016
ETT88;Espace Moknine;Visite 26;31/03/2016
ETT88;Espace Moknine;Visite 27;11/04/2016
ETT88;Espace Moknine;Visite 28;21/04/2016
ETT88;Espace Moknine;Visite 29;02/05/2016
ETT88;Espace Moknine;Visite 30;12/05/2016
ETT88;Espace Moknine;Visite 31;23/05/2016
ETT88;Espace Moknine;Visite 32;02/06/2016
ETT88;Espace Moknine;Visite 33;13/06/2016
ETT88;Espace Moknine;Visite 34;23/06/2016
ETT88;Espace Moknine;Visite 35;04/07/2016
ETT88;Espace Moknine;Visite 36;14/07/2016
ETT88;Espace Moknine;Visite 37;25/07/2016
ETT88;Espace Moknine;Visite 38;04/08/2016
ETT88;Espace Moknine;Visite 39;12/08/2016
ETT89;Espace Jammel;Visite 23;15/03/2016
ETT89;Espace Jammel;Visite 24;24/03/2016
ETT89;Espace Jammel;Visite 25;05/04/2016
ETT89;Espace Jammel;Visite 26;14/04/2016
ETT89;Espace Jammel;Visite 27;26/04/2016
ETT89;Espace Jammel;Visite 28;25/05/2016
ETT89;Espace Jammel;Visite 29;17/05/2016
ETT89;Espace Jammel;Visite 30;26/05/2016
ETT89;Espace Jammel;Visite 31;07/06/2016
ETT89;Espace Jammel;Visite 32;16/06/2016
ETT89;Espace Jammel;Visite 33;28/06/2016
ETT89;Espace Jammel;Visite 34;07/07/2016
ETT89;Espace Jammel;Visite 35;19/07/2016
ETT89;Espace Jammel;Visite 36;28/07/2016
ETT89;Espace Jammel;Visite 37;17/08/2016
ETT91;Espace Monastir Medina;Visite 22;14/03/2016
ETT91;Espace Monastir Medina;Visite 23;07/04/2016
ETT91;Espace Monastir Medina;Visite 25;28/04/2016
ETT91;Espace Monastir Medina;Visite 26;10/05/2016
ETT91;Espace Monastir Medina;Visite 27;19/05/2016
ETT91;Espace Monastir Medina;Visite 28;31/05/2016
ETT91;Espace Monastir Medina;Visite 29;09/06/2016
ETT91;Espace Monastir Medina;Visite 30;21/06/2016
ETT91;Espace Monastir Medina;Visite 31;30/06/2016
ETT91;Espace Monastir Medina;Visite 32;12/07/2016
ETT91;Espace Monastir Medina;Visite 33;21/07/2016
ETT91;Espace Monastir Medina;Visite 34;02/08/2016
ETT91;Espace Monastir Medina;Visite 35;10/08/2016
ETT91;Espace Monastir Medina;Visite 36;19/08/2016
ETT94;Espace Msaken;Visite 20;16/03/2016
ETT94;Espace Msaken;Visite 21;22/03/2016
ETT94;Espace Msaken;Visite 22;30/03/2016
ETT94;Espace Msaken;Visite 23;12/04/2016
ETT94;Espace Msaken;Visite 24;20/04/2016
ETT94;Espace Msaken;Visite 25;03/05/2016
ETT94;Espace Msaken;Visite 26;11/05/2016
ETT94;Espace Msaken;Visite 27;24/05/2016
ETT94;Espace Msaken;Visite 28;01/06/2016
ETT94;Espace Msaken;Visite 29;14/06/2016
ETT94;Espace Msaken;Visite 30;22/06/2016
ETT94;Espace Msaken;Visite 31;05/07/2016
ETT94;Espace Msaken;Visite 32;13/07/2016
ETT94;Espace Msaken;Visite 33;26/07/2016
ETT94;Espace Msaken;Visite 34;03/08/2016
ETT94;Espace Msaken;Visite 35;11/08/2016
ETT95;Espace Bouhcina;Visite 25;15/03/2016
ETT95;Espace Bouhcina;Visite 26;21/03/2016
ETT95;Espace Bouhcina;Visite 27;31/03/2016
ETT95;Espace Bouhcina;Visite 28;12/04/2016
ETT95;Espace Bouhcina;Visite 29;13/04/2016
ETT95;Espace Bouhcina;Visite 30;25/04/2016
ETT95;Espace Bouhcina;Visite 31;03/05/2016
ETT95;Espace Bouhcina;Visite 32;12/05/2016
ETT95;Espace Bouhcina;Visite 33;02/06/2016
ETT95;Espace Bouhcina;Visite 34;08/06/2016
ETT95;Espace Bouhcina;Visite 35;15/06/2016
ETT95;Espace Bouhcina;Visite 36;23/06/2016
ETT95;Espace Bouhcina;Visite 37;28/06/2016
ETT95;Espace Bouhcina;Visite 38;05/07/2016
ETT95;Espace Bouhcina;Visite 39;12/07/2016
ETT95;Espace Bouhcina;Visite 40;20/07/2016
ETT99;Espace Enfidha;Visite 18;06/04/2016
ETT99;Espace Enfidha;Visite 19;19/04/2016
ETT99;Espace Enfidha;Visite 20;02/05/2016
ETT99;Espace Enfidha;Visite 21;16/05/2016
ETT99;Espace Enfidha;Visite 22;17/05/2016
ETT99;Espace Enfidha;Visite 23;30/05/2016
ETT99;Espace Enfidha;Visite 24;14/06/2016
ETT99;Espace Enfidha;Visite 25;27/06/2016
ETT99;Espace Enfidha;Visite 26;04/07/2016
ETT99;Espace Enfidha;Visite 27;18/07/2016
ETT96;Espace Kantaoui;Visite 20;28/03/2016
ETT96;Espace Kantaoui;Visite 21;11/04/2016
ETT96;Espace Kantaoui;Visite 22;20/04/2016
ETT96;Espace Kantaoui;Visite 23;27/04/2016
ETT96;Espace Kantaoui;Visite 24;09/05/2016
ETT96;Espace Kantaoui;Visite 25;16/05/2016
ETT96;Espace Kantaoui;Visite 26;01/06/2016
ETT96;Espace Kantaoui;Visite 27;13/06/2016
ETT96;Espace Kantaoui;Visite 28;20/06/2016
ETT96;Espace Kantaoui;Visite 29;11/07/2016
ETT96;Espace Kantaoui;Visite 30;25/07/2016
ETT104;Espace Dar Chaabane;Visite 7;09/03/2016
ETT104;Espace Dar Chaabane;Visite 8;22/03/2016
ETT104;Espace Dar Chaabane;Visite 9;30/03/2016
ETT104;Espace Dar Chaabane;Visite 10;05/04/2016
ETT104;Espace Dar Chaabane;Visite 11;14/04/2016
ETT104;Espace Dar Chaabane;Visite 12;26/04/2016
ETT104;Espace Dar Chaabane;Visite 13;10/05/2016
ETT104;Espace Dar Chaabane;Visite 14;07/06/2016
ETT104;Espace Dar Chaabane;Visite 15;21/06/2016
ETT104;Espace Dar Chaabane;Visite 16;30/06/2016
ETT104;Espace Dar Chaabane;Visite 17;19/07/2016
ETT104;Espace Dar Chaabane;Visite 18;26/07/2016
ETT105;Espace Aéroport Monastir;Visite 8;01/03/2016
ETT105;Espace Aéroport Monastir;Visite 9;10/03/2016
ETT105;Espace Aéroport Monastir;Visite 10;24/03/2016
ETT105;Espace Aéroport Monastir;Visite 11;04/04/2016
ETT105;Espace Aéroport Monastir;Visite 12;21/04/2016
ETT105;Espace Aéroport Monastir;Visite 13;04/05/2016
ETT105;Espace Aéroport Monastir;Visite 14;05/05/2016
ETT105;Espace Aéroport Monastir;Visite 15;07/07/2016
ETT105;Espace Aéroport Monastir;Visite 16;16/06/2016
ETT105;Espace Aéroport Monastir;Visite 17;16/03/2016
ETT97;Espace PDV Erriadh;Visite 21;07/03/2016
ETT97;Espace PDV Erriadh;Visite 22;17/03/2016
ETT97;Espace PDV Erriadh;Visite 23;29/03/2016
ETT97;Espace PDV Erriadh;Visite 24;07/04/2016
ETT97;Espace PDV Erriadh;Visite 25;18/04/2016
ETT97;Espace PDV Erriadh;Visite 26;28/04/2016
ETT97;Espace PDV Erriadh;Visite 27;11/05/2016
ETT97;Espace PDV Erriadh;Visite 28;18/05/2016
ETT97;Espace PDV Erriadh;Visite 29;31/05/2016
ETT97;Espace PDV Erriadh;Visite 30;06/06/2016
ETT97;Espace PDV Erriadh;Visite 31;16/06/2016
ETT97;Espace PDV Erriadh;Visite 32;22/06/2016
ETT97;Espace PDV Erriadh;Visite 33;29/06/2016
ETT97;Espace PDV Erriadh;Visite 34;06/07/2016
ETT97;Espace PDV Erriadh;Visite 35;13/07/2016
ETT97;Espace PDV Erriadh;Visite 36;21/07/2016
ETT101;Espace Mahfar;Visite 18;01/03/2016
ETT85;Espace Menzel Temime;Visite 18;03/03/2016
ETT103;Espace Barraket Essahel;Visite 18;07/03/2016
ETT84;Espace Korba;Visite 18;09/03/2016
ETT98;Espace Entreprise Sousse;Visite 16;14/03/2016
ETT83;Espace Hammamet;Visite 17;15/03/2016
ETT81;Espace Nabeul;Visite 28;16/03/2016
ETT101;Espace Mahfar;Visite 19;17/03/2016
ETT85;Espace Menzel Temime;Visite 19;21/03/2016
ETT103;Espace Barraket Essahel;Visite 19;22/03/2016
ETT86;Espace Kelibia;Visite 18;24/03/2016
ETT84;Espace Korba;Visite 19;28/03/2016
ETT98;Espace Entreprise Sousse;Visite 17;31/03/2016
ETT83;Espace Hammamet;Visite 18;04/04/2016
ETT81;Espace Nabeul;Visite 29;05/04/2016
ETT101;Espace Mahfar;Visite 20;07/04/2016
ETT85;Espace Menzel Temime;Visite 20;11/04/2016
ETT103;Espace Barraket Essahel;Visite 20;12/04/2016
ETT86;Espace Kelibia;Visite 19;13/04/2016
ETT84;Espace Korba;Visite 20;14/04/2016
ETT98;Espace Entreprise Sousse;Visite 18;19/04/2016
ETT83;Espace Hammamet;Visite 19;20/04/2016
ETT81;Espace Nabeul;Visite 30;21/04/2016
ETT101;Espace Mahfar;Visite 21;25/04/2016
ETT85;Espace Menzel Temime;Visite 21;26/04/2016
ETT103;Espace Barraket Essahel;Visite 21;27/04/2016
ETT86;Espace Kelibia;Visite 20;02/05/2016
ETT84;Espace Korba;Visite 21;03/05/2016
ETT82;Espace Grombalia;Visite 30;04/05/2016
ETT98;Espace Entreprise Sousse;Visite 19;05/05/2016
ETT83;Espace Hammamet;Visite 20;09/05/2016
ETT81;Espace Nabeul;Visite 31;10/05/2016
ETT101;Espace Mahfar;Visite 22;12/05/2016
ETT85;Espace Menzel Temime;Visite 22;16/05/2016
ETT103;Espace Barraket Essahel;Visite 22;17/05/2016
ETT86;Espace Kelibia;Visite 21;19/05/2016
ETT84;Espace Korba;Visite 22;23/05/2016
ETT82;Espace Grombalia;Visite 31;24/05/2016
ETT98;Espace Entreprise Sousse;Visite 20;25/05/2016
ETT83;Espace Hammamet;Visite 21;14/06/2016
ETT81;Espace Nabeul;Visite 32;30/05/2016
ETT101;Espace Mahfar;Visite 23;31/05/2016
ETT85;Espace Menzel Temime;Visite 23;01/06/2016
ETT103;Espace Barraket Essahel;Visite 23;02/06/2016
ETT86;Espace Kelibia;Visite 22;07/06/2016
ETT84;Espace Korba;Visite 23;08/06/2016
ETT82;Espace Grombalia;Visite 32;09/06/2016
ETT81;Espace Nabeul;Visite 33;15/06/2016
ETT101;Espace Mahfar;Visite 24;20/06/2016
ETT85;Espace Menzel Temime;Visite 24;21/06/2016
ETT103;Espace Barraket Essahel;Visite 24;22/06/2016
ETT86;Espace Kelibia;Visite 23;27/06/2016
ETT84;Espace Korba;Visite 24;28/06/2016
ETT82;Espace Grombalia;Visite 33;29/06/2016
ETT83;Espace Hammamet;Visite 22;04/07/2016
ETT81;Espace Nabeul;Visite 34;07/07/2016
ETT101;Espace Mahfar;Visite 25;11/07/2016
ETT85;Espace Menzel Temime;Visite 25;12/07/2016
ETT103;Espace Barraket Essahel;Visite 25;13/07/2016
ETT86;Espace Kelibia;Visite 24;18/07/2016
ETT84;Espace Korba;Visite 25;19/07/2016
ETT82;Espace Grombalia;Visite 34;20/07/2016
ETT83;Espace Hammamet;Visite 23;25/07/2016
ETT81;Espace Nabeul;Visite 35;26/07/2016
ETT98;Espace Entreprise Sousse;Visite 25;27/07/2016
ETT101;Espace Mahfar;Visite 26;28/07/2016
ETT85;Espace Menzel Temime;Visite 26;01/08/2016
ETT103;Espace Barraket Essahel;Visite 26;02/08/2016
ETT86;Espace Kelibia;Visite 25;04/08/2016
ETT84;Espace Korba;Visite 26;08/08/2016
ETT82;Espace Grombalia;Visite 35;09/08/2016
ETT83;Espace Hammamet;Visite 24;11/08/2016
ETT81;Espace Nabeul;Visite 36;15/08/2016
ETT101;Espace Mahfar;Visite 27;16/08/2016
ETT85;Espace Menzel Temime;Visite 27;17/08/2016
ETT103;Espace Barraket Essahel;Visite 27;18/08/2016
ETT1;Espace Kasbah;Visite 24;07/03/2016
ETT1;Espace Kasbah;Visite 25;14/03/2016
ETT1;Espace Kasbah;Visite 26;24/03/2016
ETT1;Espace Kasbah;Visite 27;06/04/2016
ETT1;Espace Kasbah;Visite 28;19/04/2016
ETT1;Espace Kasbah;Visite 29;02/05/2016
ETT1;Espace Kasbah;Visite 30;11/05/2016
ETT1;Espace Kasbah;Visite 31;12/05/2016
ETT1;Espace Kasbah;Visite 32;02/06/2016
ETT1;Espace Kasbah;Visite 33;14/06/2016
ETT1;Espace Kasbah;Visite 34;23/06/2016
ETT1;Espace Kasbah;Visite 35;05/07/2016
ETT1;Espace Kasbah;Visite 36;14/07/2016
ETT1;Espace Kasbah;Visite 37;27/07/2016
ETT14;Espace Ben Arous;Visite 24;03/03/2016
ETT14;Espace Ben Arous;Visite 25;09/03/2016
ETT14;Espace Ben Arous;Visite 26;29/03/2016
ETT14;Espace Ben Arous;Visite 27;11/04/2016
ETT14;Espace Ben Arous;Visite 28;21/04/2016
ETT14;Espace Ben Arous;Visite 29;04/05/2016
ETT14;Espace Ben Arous;Visite 30;17/05/2016
ETT14;Espace Ben Arous;Visite 31;26/05/2016
ETT14;Espace Ben Arous;Visite 32;07/06/2016
ETT14;Espace Ben Arous;Visite 33;16/06/2016
ETT14;Espace Ben Arous;Visite 34;28/06/2016
ETT14;Espace Ben Arous;Visite 35;07/07/2016
ETT14;Espace Ben Arous;Visite 36;19/07/2016
ETT19;Espace Manouba;Visite 19;15/03/2016
ETT19;Espace Manouba;Visite 20;28/03/2016
ETT19;Espace Manouba;Visite 21;01/04/2016
ETT19;Espace Manouba;Visite 22;07/04/2016
ETT19;Espace Manouba;Visite 23;20/04/2016
ETT19;Espace Manouba;Visite 24;03/05/2016
ETT19;Espace Manouba;Visite 25;16/05/2016
ETT19;Espace Manouba;Visite 26;25/05/2016
ETT19;Espace Manouba;Visite 27;06/06/2016
ETT19;Espace Manouba;Visite 28;15/06/2016
ETT19;Espace Manouba;Visite 29;27/06/2016
ETT19;Espace Manouba;Visite 30;06/07/2016
ETT19;Espace Manouba;Visite 31;18/07/2016
ETT19;Espace Manouba;Visite 32;28/07/2016
ETT7;Espace Bardo;Visite 26;14/03/2016
ETT7;Espace Bardo;Visite 27;16/03/2016
ETT7;Espace Bardo;Visite 28;23/03/2016
ETT7;Espace Bardo;Visite 29;30/03/2016
ETT7;Espace Bardo;Visite 30;06/04/2016
ETT7;Espace Bardo;Visite 31;13/04/2016
ETT7;Espace Bardo;Visite 32;20/04/2016
ETT7;Espace Bardo;Visite 33;27/04/2016
ETT7;Espace Bardo;Visite 34;04/05/2016
ETT7;Espace Bardo;Visite 35;11/05/2016
ETT7;Espace Bardo;Visite 36;18/05/2016
ETT7;Espace Bardo;Visite 37;25/05/2016
ETT3;Espace Kram;Visite 20;06/06/2016
ETT3;Espace Kram;Visite 22;21/03/2016
ETT3;Espace Kram;Visite 23;28/03/2016
ETT3;Espace Kram;Visite 24;04/04/2016
ETT3;Espace Kram;Visite 25;11/04/2016
ETT3;Espace Kram;Visite 26;18/04/2016
ETT3;Espace Kram;Visite 30;16/05/2016
ETT3;Espace Kram;Visite 31;23/05/2016
ETT4;Espace La Goulette;Visite 21;16/03/2016
ETT4;Espace La Goulette;Visite 22;22/03/2016
ETT4;Espace La Goulette;Visite 25;12/04/2016
ETT4;Espace La Goulette;Visite 28;03/05/2016
ETT4;Espace La Goulette;Visite 29;10/05/2016
ETT4;Espace La Goulette;Visite 31;24/05/2016
ETT4;Espace La Goulette;Visite 32;31/05/2016
ETT6;Espace Ouardia;Visite 21;15/03/2016
ETT6;Espace Ouardia;Visite 23;22/03/2016
ETT6;Espace Ouardia;Visite 24;29/03/2016
ETT6;Espace Ouardia;Visite 25;05/04/2016
ETT6;Espace Ouardia;Visite 26;12/04/2016
ETT6;Espace Ouardia;Visite 27;19/04/2016
ETT6;Espace Ouardia;Visite 28;26/04/2016
ETT6;Espace Ouardia;Visite 29;03/05/2016
ETT6;Espace Ouardia;Visite 30;10/05/2016
ETT6;Espace Ouardia;Visite 31;17/05/2016
ETT6;Espace Ouardia;Visite 32;24/05/2016
ETT6;Espace Ouardia;Visite 33;31/05/2016
ETT6;Espace Ouardia;Visite 34;07/06/2016
ETT8;Espace Ezzouhour;Visite 21;17/03/2016
ETT8;Espace Ezzouhour;Visite 22;24/03/2016
ETT8;Espace Ezzouhour;Visite 23;31/03/2016
ETT8;Espace Ezzouhour;Visite 24;07/04/2016
ETT8;Espace Ezzouhour;Visite 25;14/04/2016
ETT8;Espace Ezzouhour;Visite 26;21/04/2016
ETT8;Espace Ezzouhour;Visite 27;28/04/2016
ETT8;Espace Ezzouhour;Visite 28;05/05/2016
ETT8;Espace Ezzouhour;Visite 29;12/05/2016
ETT8;Espace Ezzouhour;Visite 30;19/05/2016
ETT64;Espace Mjez el Beb;Visite 19;02/03/2016
ETT64;Espace Mjez el Beb;Visite 20;01/09/2016
ETT64;Espace Mjez el Beb;Visite 21;23/03/2016
ETT64;Espace Mjez el Beb;Visite 22;25/04/2016
ETT64;Espace Mjez el Beb;Visite 23;04/05/2016
ETT64;Espace Mjez el Beb;Visite 24;16/05/2016
ETT64;Espace Mjez el Beb;Visite 25;25/05/2016
ETT64;Espace Mjez el Beb;Visite 26;06/06/2016
ETT64;Espace Mjez el Beb;Visite 27;15/06/2016
ETT64;Espace Mjez el Beb;Visite 28;27/06/2016
ETT64;Espace Mjez el Beb;Visite 29;06/07/2016
ETT64;Espace Mjez el Beb;Visite 30;18/07/2016
ETT64;Espace Mjez el Beb;Visite 31;27/07/2016
ETT64;Espace Mjez el Beb;Visite 32;08/08/2016
ETT64;Espace Mjez el Beb;Visite 33;17/08/2016
ETT64;Espace Mjez el Beb;Visite 34;29/08/2016
ETT67;Espace Tebersouk;Visite 20;03/03/2016
ETT67;Espace Tebersouk;Visite 21;02/09/2016
ETT67;Espace Tebersouk;Visite 22;24/03/2016
ETT67;Espace Tebersouk;Visite 23;26/04/2016
ETT67;Espace Tebersouk;Visite 24;05/05/2016
ETT67;Espace Tebersouk;Visite 25;17/05/2016
ETT67;Espace Tebersouk;Visite 26;26/05/2016
ETT67;Espace Tebersouk;Visite 27;07/06/2016
ETT67;Espace Tebersouk;Visite 28;16/06/2016
ETT67;Espace Tebersouk;Visite 29;28/06/2016
ETT67;Espace Tebersouk;Visite 30;07/07/2016
ETT67;Espace Tebersouk;Visite 31;19/07/2016
ETT67;Espace Tebersouk;Visite 32;28/07/2016
ETT67;Espace Tebersouk;Visite 33;09/08/2016
ETT67;Espace Tebersouk;Visite 34;18/08/2016
ETT67;Espace Tebersouk;Visite 35;30/08/2016
ETT68;Espace Jendouba;Visite 22;28/03/2016
ETT68;Espace Jendouba;Visite 23;18/04/2016
ETT68;Espace Jendouba;Visite 24;27/04/2016
ETT68;Espace Jendouba;Visite 25;09/05/2016
ETT68;Espace Jendouba;Visite 26;18/05/2016
ETT68;Espace Jendouba;Visite 27;30/05/2016
ETT68;Espace Jendouba;Visite 28;08/06/2016
ETT68;Espace Jendouba;Visite 29;20/06/2016
ETT68;Espace Jendouba;Visite 30;29/06/2016
ETT68;Espace Jendouba;Visite 31;11/07/2016
ETT68;Espace Jendouba;Visite 32;20/07/2016
ETT68;Espace Jendouba;Visite 33;01/08/2016
ETT68;Espace Jendouba;Visite 34;10/08/2016
ETT68;Espace Jendouba;Visite 35;22/08/2016
ETT68;Espace Jendouba;Visite 36;31/08/2016
ETT70;Espace Tabarka;Visite 20;17/03/2016
ETT70;Espace Tabarka;Visite 21;29/03/2016
ETT70;Espace Tabarka;Visite 22;19/04/2016
ETT70;Espace Tabarka;Visite 23;28/04/2016
ETT70;Espace Tabarka;Visite 24;10/05/2016
ETT70;Espace Tabarka;Visite 25;19/05/2016
ETT70;Espace Tabarka;Visite 26;31/05/2016
ETT70;Espace Tabarka;Visite 27;09/06/2016
ETT70;Espace Tabarka;Visite 28;21/06/2016
ETT70;Espace Tabarka;Visite 29;30/06/2016
ETT70;Espace Tabarka;Visite 30;12/07/2016
ETT70;Espace Tabarka;Visite 31;21/07/2016
ETT70;Espace Tabarka;Visite 32;02/08/2016
ETT70;Espace Tabarka;Visite 33;11/08/2016
ETT66;Espace Nefza;Visite 19;21/03/2016
ETT66;Espace Nefza;Visite 20;30/03/2016
ETT66;Espace Nefza;Visite 21;20/04/2016
ETT66;Espace Nefza;Visite 22;02/05/2016
ETT66;Espace Nefza;Visite 23;11/05/2016
ETT66;Espace Nefza;Visite 24;23/05/2016
ETT66;Espace Nefza;Visite 25;01/06/2016
ETT66;Espace Nefza;Visite 26;13/06/2016
ETT66;Espace Nefza;Visite 27;22/06/2016
ETT66;Espace Nefza;Visite 28;04/07/2016
ETT66;Espace Nefza;Visite 29;13/07/2016
ETT66;Espace Nefza;Visite 30;25/07/2016
ETT66;Espace Nefza;Visite 31;03/08/2016
ETT66;Espace Nefza;Visite 32;15/08/2016
ETT66;Espace Nefza;Visite 33;24/08/2016
ETT74;Espace Barnoussa;Visite 23;22/03/2016
ETT74;Espace Barnoussa;Visite 24;31/03/2016
ETT74;Espace Barnoussa;Visite 25;21/04/2016
ETT74;Espace Barnoussa;Visite 26;03/05/2016
ETT74;Espace Barnoussa;Visite 27;12/05/2016
ETT74;Espace Barnoussa;Visite 28;24/05/2016
ETT74;Espace Barnoussa;Visite 29;02/06/2016
ETT74;Espace Barnoussa;Visite 30;14/06/2016
ETT74;Espace Barnoussa;Visite 31;23/06/2016
ETT74;Espace Barnoussa;Visite 32;05/07/2016
ETT74;Espace Barnoussa;Visite 33;14/07/2016
ETT74;Espace Barnoussa;Visite 34;26/07/2016
ETT74;Espace Barnoussa;Visite 35;04/08/2016
ETT74;Espace Barnoussa;Visite 36;16/08/2016
ETT74;Espace Barnoussa;Visite 37;25/08/2016
ETT120;Espace Metlaoui;Visite 20;14/03/2016
ETT109;Espace Sbeitla;Visite 21;15/03/2016
ETT108;Espace Kasserine;Visite 19;16/03/2016
ETT110;Espace Thala;Visite 21;17/03/2016
ETT119;Espace Gafsa;Visite 21;21/03/2016
ETT122;Espace Cité Ennour;Visite 21;22/03/2016
ETT121;Espace Ksar;Visite 20;23/03/2016
ETT120;Espace Metlaoui;Visite 21;24/03/2016
ETT109;Espace Sbeitla;Visite 22;28/03/2016
ETT108;Espace Kasserine;Visite 20;29/03/2016
ETT110;Espace Thala;Visite 22;30/03/2016
ETT119;Espace Gafsa;Visite 22;31/03/2016
ETT122;Espace Cité Ennour;Visite 22;04/04/2016
ETT121;Espace Ksar;Visite 21;05/04/2016
ETT120;Espace Metlaoui;Visite 22;06/04/2016
ETT109;Espace Sbeitla;Visite 23;07/04/2016
ETT108;Espace Kasserine;Visite 21;11/04/2016
ETT110;Espace Thala;Visite 23;12/04/2016
ETT119;Espace Gafsa;Visite 23;13/04/2016
ETT122;Espace Cité Ennour;Visite 23;14/04/2016
ETT121;Espace Ksar;Visite 22;18/04/2016
ETT120;Espace Metlaoui;Visite 23;19/04/2016
ETT109;Espace Sbeitla;Visite 24;20/04/2016
ETT108;Espace Kasserine;Visite 22;21/04/2016
ETT110;Espace Thala;Visite 24;25/04/2016
ETT119;Espace Gafsa;Visite 24;26/04/2016
ETT122;Espace Cité Ennour;Visite 24;27/04/2016
ETT121;Espace Ksar;Visite 23;28/04/2016
ETT120;Espace Metlaoui;Visite 24;02/05/2016
ETT109;Espace Sbeitla;Visite 25;03/05/2016
ETT108;Espace Kasserine;Visite 23;04/05/2016
ETT110;Espace Thala;Visite 25;05/05/2016
ETT119;Espace Gafsa;Visite 25;09/05/2016
ETT122;Espace Cité Ennour;Visite 25;10/05/2016
ETT121;Espace Ksar;Visite 24;11/05/2016
ETT120;Espace Metlaoui;Visite 25;12/05/2016
ETT109;Espace Sbeitla;Visite 26;16/05/2016
ETT108;Espace Kasserine;Visite 24;17/05/2016
ETT110;Espace Thala;Visite 26;18/05/2016
ETT119;Espace Gafsa;Visite 26;19/05/2016
ETT122;Espace Cité Ennour;Visite 26;23/05/2016
ETT121;Espace Ksar;Visite 25;24/05/2016
ETT120;Espace Metlaoui;Visite 26;25/05/2016
ETT109;Espace Sbeitla;Visite 27;26/05/2016
ETT108;Espace Kasserine;Visite 25;30/05/2016
ETT110;Espace Thala;Visite 27;31/05/2016
ETT119;Espace Gafsa;Visite 27;01/06/2016
ETT122;Espace Cité Ennour;Visite 27;02/06/2016
ETT121;Espace Ksar;Visite 26;06/06/2016
ETT120;Espace Metlaoui;Visite 27;07/06/2016
ETT109;Espace Sbeitla;Visite 28;08/06/2016
ETT108;Espace Kasserine;Visite 26;09/06/2016
ETT110;Espace Thala;Visite 28;13/06/2016
ETT119;Espace Gafsa;Visite 28;14/06/2016
ETT122;Espace Cité Ennour;Visite 28;15/06/2016
ETT121;Espace Ksar;Visite 27;16/06/2016
ETT120;Espace Metlaoui;Visite 28;20/06/2016
ETT109;Espace Sbeitla;Visite 29;21/06/2016
ETT108;Espace Kasserine;Visite 27;22/06/2016
ETT110;Espace Thala;Visite 29;23/06/2016
ETT119;Espace Gafsa;Visite 29;27/06/2016
ETT122;Espace Cité Ennour;Visite 29;28/06/2016
ETT121;Espace Ksar;Visite 28;29/06/2016
ETT120;Espace Metlaoui;Visite 29;30/06/2016
ETT109;Espace Sbeitla;Visite 30;04/07/2016
ETT108;Espace Kasserine;Visite 28;05/07/2016
ETT110;Espace Thala;Visite 30;06/07/2016
ETT119;Espace Gafsa;Visite 30;07/07/2016
ETT122;Espace Cité Ennour;Visite 30;11/07/2016
ETT121;Espace Ksar;Visite 29;12/07/2016
ETT120;Espace Metlaoui;Visite 30;13/07/2016
ETT109;Espace Sbeitla;Visite 31;14/07/2016
ETT108;Espace Kasserine;Visite 29;18/07/2016
ETT110;Espace Thala;Visite 31;19/07/2016
ETT119;Espace Gafsa;Visite 31;20/07/2016
ETT122;Espace Cité Ennour;Visite 31;21/07/2016
ETT121;Espace Ksar;Visite 30;25/07/2016
ETT120;Espace Metlaoui;Visite 31;26/07/2016
ETT109;Espace Sbeitla;Visite 32;27/07/2016
ETT108;Espace Kasserine;Visite 30;28/07/2016
ETT110;Espace Thala;Visite 32;01/08/2016
ETT119;Espace Gafsa;Visite 32;02/08/2016
ETT122;Espace Cité Ennour;Visite 32;03/08/2016
ETT121;Espace Ksar;Visite 31;04/08/2016
ETT120;Espace Metlaoui;Visite 32;08/08/2016
ETT109;Espace Sbeitla;Visite 33;09/08/2016
ETT108;Espace Kasserine;Visite 31;10/08/2016
ETT110;Espace Thala;Visite 33;11/08/2016
ETT119;Espace Gafsa;Visite 33;15/08/2016
ETT122;Espace Cité Ennour;Visite 33;16/08/2016
ETT121;Espace Ksar;Visite 32;17/08/2016
ETT120;Espace Metlaoui;Visite 33;18/08/2016
ETT109;Espace Sbeitla;Visite 34;22/08/2016
ETT108;Espace Kasserine;Visite 32;23/08/2016
ETT110;Espace Thala;Visite 34;24/08/2016
ETT119;Espace Gafsa;Visite 34;25/08/2016
ETT122;Espace Cité Ennour;Visite 34;29/08/2016
ETT121;Espace Ksar;Visite 33;30/08/2016
ETT120;Espace Metlaoui;Visite 34;31/08/2016
ETT114;Espace Sidi Bouzid;Visite 26;16/04/2016
ETT114;Espace Sidi Bouzid;Visite 27;21/05/2016
ETT114;Espace Sidi Bouzid;Visite 28;25/06/2016
ETT114;Espace Sidi Bouzid;Visite 29;30/07/2016
ETT115;Espace Jelma;Visite 26;19/03/2016
ETT115;Espace Jelma;Visite 27;23/04/2016
ETT115;Espace Jelma;Visite 28;28/05/2016
ETT115;Espace Jelma;Visite 29;02/07/2016
ETT115;Espace Jelma;Visite 30;06/08/2016
ETT116;Espace Regueb;Visite 24;26/03/2016
ETT116;Espace Regueb;Visite 25;30/04/2016
ETT116;Espace Regueb;Visite 26;04/06/2016
ETT116;Espace Regueb;Visite 27;09/07/2016
ETT116;Espace Regueb;Visite 28;13/08/2016
ETT117;Espace Meknassy;Visite 24;02/04/2016
ETT117;Espace Meknassy;Visite 25;07/05/2016
ETT117;Espace Meknassy;Visite 26;11/06/2016
ETT117;Espace Meknassy;Visite 27;16/07/2016
ETT117;Espace Meknassy;Visite 28;20/08/2016
ETT118;Espace Bir Lahfay;Visite 26;09/04/2016
ETT118;Espace Bir Lahfay;Visite 27;14/05/2016
ETT118;Espace Bir Lahfay;Visite 28;18/06/2016
ETT118;Espace Bir Lahfay;Visite 29;23/07/2016
ETT118;Espace Bir Lahfay;Visite 30;27/08/2016
ETT123;Espace Tozeur;Visite 24;28/03/2016
ETT123;Espace Tozeur;Visite 25;11/04/2016
ETT123;Espace Tozeur;Visite 26;25/04/2016
ETT123;Espace Tozeur;Visite 27;09/05/2016
ETT123;Espace Tozeur;Visite 28;23/05/2016
ETT123;Espace Tozeur;Visite 29;06/06/2016
ETT123;Espace Tozeur;Visite 30;20/06/2016
ETT124;Espace Nafta;Visite 24;29/03/2016
ETT124;Espace Nafta;Visite 25;12/04/2016
ETT124;Espace Nafta;Visite 26;26/04/2016
ETT124;Espace Nafta;Visite 27;10/05/2016
ETT124;Espace Nafta;Visite 28;24/05/2016
ETT124;Espace Nafta;Visite 29;07/06/2016
ETT124;Espace Nafta;Visite 30;21/06/2016
ETT125;Espace Tozeur Ville;Visite 24;29/03/2016
ETT125;Espace Tozeur Ville;Visite 25;12/04/2016
ETT125;Espace Tozeur Ville;Visite 26;26/04/2016
ETT125;Espace Tozeur Ville;Visite 27;10/05/2016
ETT125;Espace Tozeur Ville;Visite 28;24/05/2016
ETT125;Espace Tozeur Ville;Visite 29;07/06/2016
ETT125;Espace Tozeur Ville;Visite 30;21/06/2016
ETT131;Espace Haffouz;Visite 21;23/03/2016
ETT131;Espace Haffouz;Visite 22;06/04/2016
ETT131;Espace Haffouz;Visite 23;20/04/2016
ETT131;Espace Haffouz;Visite 24;04/05/2016
ETT131;Espace Haffouz;Visite 25;18/05/2016
ETT131;Espace Haffouz;Visite 26;01/06/2016
ETT131;Espace Haffouz;Visite 27;15/06/2016
ETT131;Espace Haffouz;Visite 28;29/06/2016
ETT131;Espace Haffouz;Visite 29;13/07/2016
ETT131;Espace Haffouz;Visite 30;27/07/2016
ETT131;Espace Haffouz;Visite 31;10/08/2016
ETT131;Espace Haffouz;Visite 32;24/08/2016
ETT131;Espace Haffouz;Visite 33;09/06/2016
ETT131;Espace Haffouz;Visite 34;16/06/2016
ETT131;Espace Haffouz;Visite 35;23/06/2016
ETT131;Espace Haffouz;Visite 36;30/06/2016
ETT131;Espace Haffouz;Visite 37;07/07/2016
ETT131;Espace Haffouz;Visite 38;14/07/2016
ETT131;Espace Haffouz;Visite 39;21/07/2016
ETT131;Espace Haffouz;Visite 40;04/08/2016
ETT107;Espace Beit El Hekma;Visite 28;16/03/2016
ETT107;Espace Beit El Hekma;Visite 29;21/03/2016
ETT107;Espace Beit El Hekma;Visite 30;24/03/2016
ETT107;Espace Beit El Hekma;Visite 31;30/03/2016
ETT107;Espace Beit El Hekma;Visite 32;04/04/2016
ETT107;Espace Beit El Hekma;Visite 33;13/04/2016
ETT107;Espace Beit El Hekma;Visite 34;18/04/2016
ETT107;Espace Beit El Hekma;Visite 35;21/04/2016
ETT107;Espace Beit El Hekma;Visite 36;27/04/2016
ETT107;Espace Beit El Hekma;Visite 37;02/05/2016
ETT107;Espace Beit El Hekma;Visite 38;11/05/2016
ETT107;Espace Beit El Hekma;Visite 39;16/05/2016
ETT107;Espace Beit El Hekma;Visite 40;19/05/2016
ETT113;Espace El Jem;Visite 28;14/03/2016
ETT113;Espace El Jem;Visite 29;22/03/2016
ETT113;Espace El Jem;Visite 30;30/03/2016
ETT113;Espace El Jem;Visite 31;07/04/2016
ETT113;Espace El Jem;Visite 32;18/04/2016
ETT113;Espace El Jem;Visite 33;26/04/2016
ETT113;Espace El Jem;Visite 34;04/05/2016
ETT113;Espace El Jem;Visite 35;12/05/2016
ETT113;Espace El Jem;Visite 36;23/05/2016
ETT113;Espace El Jem;Visite 37;31/05/2016
ETT113;Espace El Jem;Visite 38;08/06/2016
ETT113;Espace El Jem;Visite 39;16/06/2016
ETT113;Espace El Jem;Visite 40;27/06/2016
ETT106;Espace kairouan;Visite 28;17/03/2016
ETT106;Espace kairouan;Visite 29;22/03/2016
ETT106;Espace kairouan;Visite 30;31/03/2016
ETT106;Espace kairouan;Visite 31;05/04/2016
ETT106;Espace kairouan;Visite 32;07/04/2016
ETT106;Espace kairouan;Visite 33;14/04/2016
ETT106;Espace kairouan;Visite 34;19/04/2016
ETT106;Espace kairouan;Visite 35;28/04/2016
ETT106;Espace kairouan;Visite 36;03/05/2016
ETT106;Espace kairouan;Visite 37;05/05/2016
ETT106;Espace kairouan;Visite 38;12/05/2016
ETT106;Espace kairouan;Visite 39;17/05/2016
ETT106;Espace kairouan;Visite 40;26/05/2016
ETT90;Espace Ksar helal;Visite 24;08/03/2016
ETT90;Espace Ksar helal;Visite 25;16/03/2016
ETT90;Espace Ksar helal;Visite 26;24/03/2016
ETT90;Espace Ksar helal;Visite 27;04/04/2016
ETT90;Espace Ksar helal;Visite 28;12/04/2016
ETT90;Espace Ksar helal;Visite 29;20/04/2016
ETT90;Espace Ksar helal;Visite 30;28/04/2016
ETT90;Espace Ksar helal;Visite 31;09/05/2016
ETT90;Espace Ksar helal;Visite 32;17/05/2016
ETT90;Espace Ksar helal;Visite 33;25/05/2016
ETT90;Espace Ksar helal;Visite 34;02/06/2016
ETT90;Espace Ksar helal;Visite 35;13/06/2016
ETT90;Espace Ksar helal;Visite 36;21/06/2016
ETT90;Espace Ksar helal;Visite 37;29/06/2016
ETT90;Espace Ksar helal;Visite 38;07/07/2016
ETT90;Espace Ksar helal;Visite 39;18/07/2016
ETT90;Espace Ksar helal;Visite 40;26/07/2016
ETT111;Espace Mahdia;Visite 28;09/03/2016
ETT111;Espace Mahdia;Visite 29;11/03/2016
ETT111;Espace Mahdia;Visite 30;17/03/2016
ETT111;Espace Mahdia;Visite 31;25/03/2016
ETT111;Espace Mahdia;Visite 32;28/03/2016
ETT111;Espace Mahdia;Visite 33;05/04/2016
ETT111;Espace Mahdia;Visite 34;08/04/2016
ETT111;Espace Mahdia;Visite 35;13/04/2016
ETT111;Espace Mahdia;Visite 36;21/04/2016
ETT111;Espace Mahdia;Visite 37;22/04/2016
ETT111;Espace Mahdia;Visite 38;02/05/2016
ETT111;Espace Mahdia;Visite 39;06/05/2016
ETT111;Espace Mahdia;Visite 40;10/05/2016
ETT112;Espace Mahdia Medina;Visite 28;10/03/2016
ETT112;Espace Mahdia Medina;Visite 29;18/03/2016
ETT112;Espace Mahdia Medina;Visite 30;21/03/2016
ETT112;Espace Mahdia Medina;Visite 31;29/03/2016
ETT112;Espace Mahdia Medina;Visite 32;01/04/2016
ETT112;Espace Mahdia Medina;Visite 33;06/04/2016
ETT112;Espace Mahdia Medina;Visite 34;14/04/2016
ETT112;Espace Mahdia Medina;Visite 35;15/04/2016
ETT112;Espace Mahdia Medina;Visite 36;25/04/2016
ETT112;Espace Mahdia Medina;Visite 37;29/04/2016
ETT112;Espace Mahdia Medina;Visite 38;03/05/2016
ETT112;Espace Mahdia Medina;Visite 39;11/05/2016
ETT112;Espace Mahdia Medina;Visite 40;13/05/2016
ETT87;Espace Monastir;Visite 22;07/03/2016
ETT87;Espace Monastir;Visite 23;15/03/2016
ETT87;Espace Monastir;Visite 24;23/03/2016
ETT87;Espace Monastir;Visite 25;31/03/2016
ETT87;Espace Monastir;Visite 26;11/04/2016
ETT87;Espace Monastir;Visite 27;19/04/2016
ETT87;Espace Monastir;Visite 28;27/04/2016
ETT87;Espace Monastir;Visite 29;05/05/2016
ETT87;Espace Monastir;Visite 30;16/05/2016
ETT87;Espace Monastir;Visite 31;24/05/2016
ETT87;Espace Monastir;Visite 32;01/06/2016
ETT87;Espace Monastir;Visite 33;09/06/2016
ETT87;Espace Monastir;Visite 34;20/06/2016
ETT87;Espace Monastir;Visite 35;28/06/2016
ETT87;Espace Monastir;Visite 36;06/07/2016
ETT87;Espace Monastir;Visite 37;14/07/2016
ETT87;Espace Monastir;Visite 38;25/07/2016
ETT87;Espace Monastir;Visite 39;02/08/2016
ETT56;Espace Tunis City;Visite 28;16/05/2016
ETT57;Espace Ennasr;Visite 29;30/05/2016
ETT58;Espace El Manar;Visite 30;13/06/2016
ETT59;Espace El Ghazala;Visite 31;27/06/2016
ETT61;Espace Bizerte;Visite 33;27/07/2016
ETT62;Espace Menzel Bourguiba;Visite 34;08/08/2016
ETT78;Espace Ras Jebel;Visite 2;15/03/2016
ETT78;Espace Ras Jebel;Visite 3;29/03/2016
ETT51;Espace Siliana;Visite 24;21/03/2016
ETT51;Espace Siliana;Visite 25;04/04/2016
ETT51;Espace Siliana;Visite 26;20/04/2016
ETT51;Espace Siliana;Visite 27;04/05/2016
ETT51;Espace Siliana;Visite 28;18/05/2016
ETT51;Espace Siliana;Visite 29;01/06/2016
ETT51;Espace Siliana;Visite 30;22/06/2016
ETT51;Espace Siliana;Visite 31;06/07/2016
ETT51;Espace Siliana;Visite 32;20/07/2016
ETT51;Espace Siliana;Visite 33;10/08/2016
ETT51;Espace Siliana;Visite 34;24/08/2016
ETT106;Espace kairouan;Visite 41;31/05/2016
ETT106;Espace kairouan;Visite 42;02/06/2016
ETT106;Espace kairouan;Visite 43;09/06/2016
ETT106;Espace kairouan;Visite 44;14/06/2016
ETT106;Espace kairouan;Visite 45;23/06/2016
ETT106;Espace kairouan;Visite 46;28/06/2016
ETT106;Espace kairouan;Visite 47;30/06/2016
ETT106;Espace kairouan;Visite 48;07/07/2016
ETT106;Espace kairouan;Visite 49;12/07/2016
ETT106;Espace kairouan;Visite 50;21/07/2016
ETT106;Espace kairouan;Visite 51;26/07/2016
ETT106;Espace kairouan;Visite 52;28/07/2016
ETT106;Espace kairouan;Visite 53;04/08/2016
ETT106;Espace kairouan;Visite 54;09/08/2016
ETT106;Espace kairouan;Visite 55;18/08/2016
ETT106;Espace kairouan;Visite 56;23/08/2016
ETT106;Espace kairouan;Visite 57;25/08/2016
ETT106;Espace kairouan;Visite 58;01/09/2016
ETT107;Espace Beit El Hekma;Visite 41;25/05/2016
ETT107;Espace Beit El Hekma;Visite 42;30/05/2016
ETT107;Espace Beit El Hekma;Visite 43;08/06/2016
ETT107;Espace Beit El Hekma;Visite 44;13/06/2016
ETT107;Espace Beit El Hekma;Visite 45;16/06/2016
ETT107;Espace Beit El Hekma;Visite 46;22/06/2016
ETT107;Espace Beit El Hekma;Visite 47;27/06/2016
ETT107;Espace Beit El Hekma;Visite 48;06/07/2016
ETT107;Espace Beit El Hekma;Visite 49;11/07/2016
ETT107;Espace Beit El Hekma;Visite 50;14/07/2016
ETT107;Espace Beit El Hekma;Visite 51;20/07/2016
ETT107;Espace Beit El Hekma;Visite 52;25/07/2016
ETT107;Espace Beit El Hekma;Visite 53;03/08/2016
ETT107;Espace Beit El Hekma;Visite 54;08/08/2016
ETT107;Espace Beit El Hekma;Visite 55;11/08/2016
ETT107;Espace Beit El Hekma;Visite 56;17/08/2016
ETT107;Espace Beit El Hekma;Visite 57;22/08/2016
ETT107;Espace Beit El Hekma;Visite 58;31/08/2016
ETT123;Espace Tozeur;Visite 31;04/07/2016
ETT123;Espace Tozeur;Visite 32;18/07/2016
ETT123;Espace Tozeur;Visite 33;01/08/2016
ETT123;Espace Tozeur;Visite 34;15/08/2016
ETT123;Espace Tozeur;Visite 35;29/08/2016
ETT124;Espace Nafta;Visite 31;05/07/2016
ETT124;Espace Nafta;Visite 32;19/07/2016
ETT124;Espace Nafta;Visite 33;02/08/2016
ETT124;Espace Nafta;Visite 34;16/08/2016
ETT124;Espace Nafta;Visite 35;30/08/2016
ETT125;Espace Tozeur Ville;Visite 31;05/07/2016
ETT125;Espace Tozeur Ville;Visite 32;19/07/2016
ETT125;Espace Tozeur Ville;Visite 33;02/08/2016
ETT125;Espace Tozeur Ville;Visite 34;16/08/2016
ETT125;Espace Tozeur Ville;Visite 35;30/08/2016
ETT20;Espace Ksar Essaid;Visite 20;14/03/2016
ETT20;Espace Ksar Essaid;Visite 21;28/03/2016
ETT20;Espace Ksar Essaid;Visite 22;12/04/2016
ETT21;Espace Mornaguia;Visite 22;14/03/2016
ETT113;Espace El Jem;Visite 41;05/07/2016
ETT113;Espace El Jem;Visite 42;13/07/2016
ETT113;Espace El Jem;Visite 43;21/07/2016
ETT113;Espace El Jem;Visite 44;01/08/2016
ETT113;Espace El Jem;Visite 45;09/08/2016
ETT113;Espace El Jem;Visite 46;17/08/2016
ETT90;Espace Ksar helal;Visite 41;03/08/2016
ETT90;Espace Ksar helal;Visite 42;11/08/2016
ETT111;Espace Mahdia;Visite 41;18/05/2016
ETT111;Espace Mahdia;Visite 42;20/05/2016
ETT111;Espace Mahdia;Visite 43;26/05/2016
ETT111;Espace Mahdia;Visite 44;03/06/2016
ETT111;Espace Mahdia;Visite 45;06/06/2016
ETT111;Espace Mahdia;Visite 46;14/06/2016
ETT111;Espace Mahdia;Visite 47;17/06/2016
ETT111;Espace Mahdia;Visite 48;22/06/2016
ETT111;Espace Mahdia;Visite 49;30/06/2016
ETT111;Espace Mahdia;Visite 50;01/07/2016
ETT111;Espace Mahdia;Visite 51;11/07/2016
ETT111;Espace Mahdia;Visite 52;15/07/2016
ETT111;Espace Mahdia;Visite 53;19/07/2016
ETT111;Espace Mahdia;Visite 54;27/07/2016
ETT111;Espace Mahdia;Visite 55;29/07/2016
ETT111;Espace Mahdia;Visite 56;04/08/2016
ETT111;Espace Mahdia;Visite 57;12/08/2016
ETT111;Espace Mahdia;Visite 58;15/08/2016
ETT112;Espace Mahdia Medina;Visite 41;19/05/2016
ETT112;Espace Mahdia Medina;Visite 42;27/05/2016
ETT112;Espace Mahdia Medina;Visite 43;30/05/2016
ETT112;Espace Mahdia Medina;Visite 44;07/06/2016
ETT112;Espace Mahdia Medina;Visite 45;10/06/2016
ETT112;Espace Mahdia Medina;Visite 46;15/06/2016
ETT112;Espace Mahdia Medina;Visite 47;23/06/2016
ETT112;Espace Mahdia Medina;Visite 48;24/06/2016
ETT112;Espace Mahdia Medina;Visite 49;04/07/2016
ETT112;Espace Mahdia Medina;Visite 50;08/07/2016
ETT112;Espace Mahdia Medina;Visite 51;12/07/2016
ETT112;Espace Mahdia Medina;Visite 52;20/07/2016
ETT112;Espace Mahdia Medina;Visite 53;22/07/2016
ETT112;Espace Mahdia Medina;Visite 54;28/07/2016
ETT112;Espace Mahdia Medina;Visite 55;05/08/2016
ETT112;Espace Mahdia Medina;Visite 56;08/08/2016
ETT112;Espace Mahdia Medina;Visite 57;16/08/2016
ETT112;Espace Mahdia Medina;Visite 58;19/08/2016
ETT87;Espace Monastir;Visite 40;10/08/2016
ETT87;Espace Monastir;Visite 41;18/08/2016
ETT78;Espace Ras Jebel;Visite 1;01/03/2016
ETT61;Espace Bizerte;Visite 9;28/03/2016
ETT10;Espace Belvedere;Visite 24;02/03/2016
ETT12;Espace Entreprise Montplaisir;Visite 26;05/04/2016
ETT11;Espace Hached;Visite 24;05/05/2016
ETT11;Espace Hached;Visite 22;07/04/2016
ETT28;Espace Jebeniana;Visite 18;04/04/2016
ETT44;Espace Ghomrassen;Visite 12;05/04/2016
